{
  "players":

    [{
    "first_name": "Kevon",
    "fixture": {
      "_members": [
                  "112160"
                  ],
      "_ref": "fixtures.id"
    },
    "fppg": null,
    "id": "15475-58576",
    "images": {
      "default": {
        "height": 200,
        "url": "https://d17odppiik753x.cloudfront.net/playerimages/nba/58576.png",
        "width": 200
      }
    },
    "injured": false,
    "injury_details": "hip",
    "injury_status": "o",
    "last_name": "Looney",
    "news": {
      "latest": "2016-04-23T01:23:48Z"
    },
    "played": 5,
    "player_card_url": "https://www.fanduel.com/e/Player/58576/Stats/15475",
    "position": "PF",
    "removed": false,
    "salary": 3500,
    "starting_order": null,
    "team": {
      "_members": [
                  "687"
                  ],
      "_ref": "teams.id"
    }
     }, {
    "first_name": "Stephen",
    "fixture": {
      "_members": [
                  "112160"
                  ],
      "_ref": "fixtures.id"
    },
    "fppg": 47.94303797468354,
    "id": "15475-9524",
    "images": {
      "default": {
        "height": 200,
        "url": "https://d17odppiik753x.cloudfront.net/playerimages/nba/9524.png",
        "width": 200
      }
    },
    "injured": false,
    "injury_details": "knee",
    "injury_status": "o",
    "last_name": "Curry",
    "news": {
      "latest": "2016-05-02T18:35:15Z"
    },
    "played": 79,
    "player_card_url": "https://www.fanduel.com/e/Player/9524/Stats/15475",
    "position": "PG",
    "removed": false,
    "salary": 10600,
    "starting_order": null,
    "team": {
      "_members": [
                  "687"
                  ],
      "_ref": "teams.id"
    }
     }]
}